<svg xmlns="http://www.w3.org/2000/svg" width="31" height="26.07" viewBox="0 0 31 26.07">
  <path id="banca" d="M21.5,13a29.365,29.365,0,0,0-10.253,1.84.7.7,0,0,0-.517.467L8.607,21.764,6.655,27.7A.7.7,0,0,0,6,28.426c.079,2.484,2.548,4.307,5.4,4.307s5.321-1.823,5.4-4.307a.7.7,0,0,0-.654-.724l-1.952-5.938-1.908-5.8A27.972,27.972,0,0,1,20.8,14.418v20.4a10.929,10.929,0,0,0-2.719.435,3.924,3.924,0,0,0-1.183.562,1.3,1.3,0,0,0,0,2.243,3.929,3.929,0,0,0,1.183.56,11.761,11.761,0,0,0,3.423.451,11.73,11.73,0,0,0,3.42-.451,3.918,3.918,0,0,0,1.182-.56,1.3,1.3,0,0,0,0-2.243,3.91,3.91,0,0,0-1.183-.562,10.892,10.892,0,0,0-2.716-.435v-20.4a27.96,27.96,0,0,1,8.509,1.544l-1.908,5.8L26.856,27.7a.7.7,0,0,0-.654.724c.079,2.484,2.549,4.307,5.4,4.307s5.32-1.823,5.4-4.307a.705.705,0,0,0-.654-.724l-1.952-5.938L32.27,15.306a.7.7,0,0,0-.516-.467A29.371,29.371,0,0,0,21.5,13ZM11.4,17.781,12.854,22.2l1.807,5.5H8.138l1.807-5.5Zm20.2,0L33.055,22.2l1.807,5.5H28.339l1.807-5.5ZM7.555,29.108h7.689A3.988,3.988,0,0,1,11.4,31.324,3.987,3.987,0,0,1,7.555,29.108Zm20.2,0h7.689A3.987,3.987,0,0,1,31.6,31.324,3.988,3.988,0,0,1,27.756,29.108ZM21.5,36.21a10.58,10.58,0,0,1,3,.386,2.865,2.865,0,0,1,.751.339,2.9,2.9,0,0,1-.751.338,10.6,10.6,0,0,1-3,.386,10.615,10.615,0,0,1-3-.386,2.894,2.894,0,0,1-.751-.338A2.882,2.882,0,0,1,18.5,36.6,10.6,10.6,0,0,1,21.5,36.21Z" transform="translate(-6 -12.998)" fill="#fff" fill-rule="evenodd"/>
</svg>
