<svg xmlns="http://www.w3.org/2000/svg" width="162.563" height="30" viewBox="0 0 162.563 30">
  <g id="Group_105" data-name="Group 105" transform="translate(-761 -100)">
    <path id="Path_25" data-name="Path 25" d="M0,0H142.6l19.964,14.817L142.6,30H0Z" transform="translate(761 100)" fill="#0061ef"/>
    <text id="VERSIONE_BETA" data-name="VERSIONE BETA" transform="translate(831.075 121.226)" fill="#fff" font-size="16" font-family="TitilliumWeb-Bold, Titillium Web" font-weight="700"><tspan x="-55.84" y="0">VERSIONE BETA</tspan></text>
    <circle id="Ellipse_1" data-name="Ellipse 1" cx="3" cy="3" r="3" transform="translate(898 112)" fill="#fff"/>
  </g>
</svg>
