<svg xmlns="http://www.w3.org/2000/svg" width="6.226" height="11.972" viewBox="0 0 6.226 11.972">
  <path id="facebook" d="M4.15,3.991V2.8c0-.536.123-.807.989-.807H6.225V0H4.413C2.192,0,1.459.979,1.459,2.659V3.991H0v2H1.459v5.986H4.15V5.986H5.979l.246-2Z" transform="translate(0)" fill="#01283a"/>
</svg>
