<svg xmlns="http://www.w3.org/2000/svg" width="25.029" height="27.906" viewBox="0 0 25.029 27.906">
  <path id="oss_contratti_pubblici" d="M-102.866-181.91h0l-.032.017a.918.918,0,0,1-1.245-.357l-3.057-5.509-1.2.718,1.934,3.488a9.609,9.609,0,0,0-6.342.758l-5.146,2.832a1.439,1.439,0,0,1-1.954-.561l-2.565-4.627c-.429-.669.562-1.959.562-1.959l5.126-2.855a9.562,9.562,0,0,0,4-4.978s.609-1.783.121-2.663a.916.916,0,0,1,.356-1.24l.034-.019a.919.919,0,0,1,1.246.357l8.517,15.352A.918.918,0,0,1-102.866-181.91Zm-7.269,6.821a.857.857,0,0,1-.47,1.082.862.862,0,0,1-1.169-.178l-3.228-5.82,1.645-.9Zm-12-5.3a1.675,1.675,0,0,1-2.282-.636l-.011-.019v0a1.676,1.676,0,0,1,.638-2.282l.019-.01.536-.3,1.634,2.949Zm20.842-3.44-8.513-15.358a2.315,2.315,0,0,0-3.143-.9l-.034.019a2.314,2.314,0,0,0-.9,3.143l.2.363c-.847,2.56-1.849,4.323-4.322,5.693l-4.589,2.545a2.828,2.828,0,0,0-1.281,3.452l-.569.316a3.085,3.085,0,0,0-1.2,4.189,3.085,3.085,0,0,0,4.19,1.2l.566-.314a2.827,2.827,0,0,0,3.606.744l1.057-.586,3.232,5.818a2,2,0,0,0,1.216.953,2.513,2.513,0,0,0,2.973-1.523,2.015,2.015,0,0,0-.114-1.689l-3.215-5.807c2.229-1.068,4.142-.95,6.564-.363l.2.363a2.315,2.315,0,0,0,3.145.9l.032-.017A2.313,2.313,0,0,0-101.29-183.831Z" transform="translate(126.029 200.379)" fill="#fff"/>
</svg>
